24 Describing the Relationship Between a Categorical Outcome and a Categorical Predictor – R 4 Epidemiology
…
  persdoc   = c(1, 2, 2, 1, 2, 0, 0, 1, 2, 0, 2, 0, 1, 1, 1, 1, 1, 1, 1, 1, 0, 
                0, 1, 1, 1, 1, 2, 0, 0, 1, 1, 2, 1, 2, 0, 0, 2, 0, 0, 2, 2, 0, 
                NA, 0, 0, 0, 2, 0, 2, NA, 0, 2, 1, 1, 1, 2, 2, 0, 0, 0, 1, 2, 
                1, 1, 0, 0, 0, NA)
) %>% 
  mutate(
    age_group = factor(age_group, labels = c("Younger than 30", "30 and Older")),
    gender    = factor(gender, labels = c("Female", "Male")),
    bmi_3cat  = factor(bmi_3cat, labels = c("Normal", "Overweight", "Obese")),
    genhlth   = factor(genhlth, labels = c("Excellent", "Very Good", "Good", "Fair", "Poor")),
    persdoc    = factor(persdoc, labels = c("No", "Yes, only one", "Yes, more than one"))
  ) %>% 
  print()

# A tibble: 68 × 9
     age age_group       gender ht_in wt_lbs   bmi bmi_3cat   genhlth   persdoc 
   <dbl> <fct>           <fct>  <dbl>  <dbl> <dbl> <fct>      <fct>     <fct>   
 1    32 30 and Older    Male      70    216  31.0 Obese      Very Good Yes, on…
 2    30 30 and Older    Female    63    106  18.8 Normal     Very Good Yes, mo…
 3    32 30 and Older    Female    62    145  26.5 Overweight Good      Yes, mo…
 4    29 Younger than 30 Male      67    195  30.5 Obese      Good      Yes, on…
 5    24 Younger than 30 Female    67    143  22.4 Normal     Very Good Yes, mo…
 6    38 30 and Older    Female    58    125  26.1 Overweight Excellent No      
 7    25 Younger than 30 Female    64    138  23.7 Normal     Very Good No      
 8    24 Younger than 30 Male      69    140  20.7 Normal     Very Good Yes, on…
 9    48 30 and Older    Male      65    158  26.3 Overweight Very Good Yes, mo…
10    29 Younger than 30 Male      68    167  25.4 Overweight Excellent No      
# ℹ 58 more rows
…
