32 Restructuring Data frames – R 4 Epidemiology
…
# A tibble: 8 × 6
     id sex   weight_3 weight_6 weight_9 weight_12
  <int> <chr>    <dbl>    <dbl>    <dbl>     <dbl>
1  1001 F            9       13       16        17
2  1002 F           11       16       17        20
3  1003 M           17       20       23        24
4  1004 F           16       18       21        22
5  1005 M           11       15       16        18
6  1006 M           17       21       25        26
7  1007 M           16       17       19        21
8  1008 F           15       16       18        19

Now, let’s use the pivot_longer() function to restructure the babies data frame to a person-period format:

# A tibble: 32 × 4
      id sex   months weight
   <int> <chr> <chr>   <dbl>
 1  1001 F     3           9
 2  1001 F     6          13
 3  1001 F     9          16
 4  1001 F     12         17
 5  1002 F     3          11
 6  1002 F     6          16
 7  1002 F     9          17
 8  1002 F     12         20
 9  1003 M     3          17
10  1003 M     6          20
# ℹ 22 more rows
…
The first argument to the pivot_longer() function is the data argument. You should pass the name of the data frame you want to restructure to the data argument. Above, we passed the babies data frame to the data argument using a pipe operator.

The second argument to the pivot_longer() function is the cols argument. You should pass the name of the columns you want to make longer to the cols argument. Above, we passed the names of the four weight columns to the cols argument. The cols argument actually accepts tidy-select argument modifiers. We first discussed tidy-select argument modifiers in the chapter on subsetting data frames. In the example above, we used the starts_with() tidy-select modifier to simplify our code. Instead of passing each column name directly to the cols argument, we asked starts_with() to pass the name of any column that has a column name that starts with the word “weight” to the cols argument.

The third argument to the pivot_longer() function is the names_to argument. You should pass the names_to argument a character string or character vector that tells pivot_longer() what you want to name the column that will contain the previous column names that were pivoted. By default, the value passed to the names_to argument is "name". We passed the value "months" to the names_to argument. This tells pivot_longer() what to name the column that contains the names of the previous column names. If that seems really confusing, I’m with you. Unfortunately, we don’t currently know a better way to write it, but we will show you what the names_to argument does below.

The fourth argument to the pivot_longer() function is the names_prefix argument. You should pass the names_prefix argument a regular expression that tells pivot_longer() what to remove from the start of each of the previous column names that we pivoted. By default, the value passed to the names_prefix argument is NULL (i.e., it doesn’t remove anything). We passed the value "weight_" to the names_prefix argument. This tells pivot_longer() that we want to remove the character string “weight_” from the start of each of the previous column names that we pivoted. For example, removing “weight_” from “weight_3” results in the value “3”, removing “weight_” from “weight_6” results in the value “6”, and so on. Again, we will show you what the names_prefix argument does below.

The eighth argument (we left the 5th, 6th, and 7th arguments at their default values) to the pivot_longer() function is the values_to argument. You should pass the values_to argument a character string or character vector that tells pivot_longer() what you want to name the column that will contain the values from the columns that were pivoted. By default, the value passed to the values_to argument is "value". We passed the value "weight" to the values_to argument. This tells pivot_longer() what to name the column that contains values from the columns that were pivoted. we will demonstrate what the values_to argument does below as well.

32.2.1 The names_to argument

The official help documentation for pivot_longer() says that the value passed to the names_to argument should be “a string specifying the name of the column to create from the data stored in the column names of data.” we don’t blame you if you feel like that’s a little bit difficult to wrap your head around. Let’s take a look at the result we get when we don’t adjust the value passed to the names_to argument:

# A tibble: 32 × 4
      id sex   name      value
   <int> <chr> <chr>     <dbl>
 1  1001 F     weight_3      9
 2  1001 F     weight_6     13
 3  1001 F     weight_9     16
 4  1001 F     weight_12    17
 5  1002 F     weight_3     11
 6  1002 F     weight_6     16
 7  1002 F     weight_9     17
 8  1002 F     weight_12    20
 9  1003 M     weight_3     17
10  1003 M     weight_6     20
# ℹ 22 more rows
…
As you can see, when we only pass a value to the cols argument, pivot_longer() creates a new column that contains the column names from the data frame passed to the data argument, that are being pivoted into long format. By default, pivot_longer() names that column name. However, that name isn’t very informative. We will go ahead and change the column name to “months” because we know that this column will eventually contain month values. We do so by passing the value "months" to the names_to argument like this:

# A tibble: 32 × 4
      id sex   months    value
   <int> <chr> <chr>     <dbl>
 1  1001 F     weight_3      9
 2  1001 F     weight_6     13
 3  1001 F     weight_9     16
 4  1001 F     weight_12    17
 5  1002 F     weight_3     11
 6  1002 F     weight_6     16
 7  1002 F     weight_9     17
 8  1002 F     weight_12    20
 9  1003 M     weight_3     17
10  1003 M     weight_6     20
# ℹ 22 more rows

32.2.2 The names_prefix argument

The official help documentation for pivot_longer() says that the value passed to the names_prefix argument should be “a regular expression used to remove matching text from the start of each variable name.” Passing a value to this argument can be really useful when column names actually contain data values, which was the case above. Take the column name “weight_3” for example. The “weight” part is truly a column name – it tells us what the values in that column are. They are weights. The “3” part is actually a separate data value meaning “3 months.” If we can remove the “weight_” part of the column name, then what remains is a useful column of information – time measured in months. Passing the value “weight_” to the names_prefix argument does exactly that.

# A tibble: 32 × 4
      id sex   months value
   <int> <chr> <chr>  <dbl>
 1  1001 F     3          9
 2  1001 F     6         13
 3  1001 F     9         16
 4  1001 F     12        17
 5  1002 F     3         11
 6  1002 F     6         16
 7  1002 F     9         17
 8  1002 F     12        20
 9  1003 M     3         17
10  1003 M     6         20
# ℹ 22 more rows

Now, the value passed to the names_prefix argument can be any regular expression. So, we could have written a more complicated, and flexible, regular expression like this:

# A tibble: 32 × 4
      id sex   months value
   <int> <chr> <chr>  <dbl>
 1  1001 F     3          9
 2  1001 F     6         13
 3  1001 F     9         16
 4  1001 F     12        17
 5  1002 F     3         11
 6  1002 F     6         16
 7  1002 F     9         17
 8  1002 F     12        20
 9  1003 M     3         17
10  1003 M     6         20
# ℹ 22 more rows
…
By default, pivot_longer() names that column “value.” However, we will once again want a more informative column name in our new data frame. So, we’ll go ahead and change the column name to “weight” because that’s what the values in that column are – weights. We do so by passing the value "weight" to the values_to argument like this:

# A tibble: 32 × 4
      id sex   months weight
   <int> <chr> <chr>   <dbl>
 1  1001 F     3           9
 2  1001 F     6          13
 3  1001 F     9          16
 4  1001 F     12         17
 5  1002 F     3          11
 6  1002 F     6          16
 7  1002 F     9          17
 8  1002 F     12         20
 9  1003 M     3          17
10  1003 M     6          20
# ℹ 22 more rows

32.2.4 The names_transform argument

As one little final touch on the data restructuring at hand, it would be nice to coerce the months column from type character to type integer. We already know how to do this with mutate():

# A tibble: 32 × 4
      id sex   months weight
   <int> <chr>  <int>  <dbl>
 1  1001 F          3      9
 2  1001 F          6     13
 3  1001 F          9     16
 4  1001 F         12     17
 5  1002 F          3     11
 6  1002 F          6     16
 7  1002 F          9     17
 8  1002 F         12     20
 9  1003 M          3     17
10  1003 M          6     20
# ℹ 22 more rows

However, we can also do this directly inside the pivot_longer() function by passing a list of column names paired with type coercion functions. For example:

# A tibble: 32 × 4
      id sex   months weight
   <int> <chr>  <int>  <dbl>
 1  1001 F          3      9
 2  1001 F          6     13
 3  1001 F          9     16
 4  1001 F         12     17
 5  1002 F          3     11
 6  1002 F          6     16
 7  1002 F          9     17
 8  1002 F         12     20
 9  1003 M          3     17
10  1003 M          6     20
# ℹ 22 more rows
…
Here is what we want our final data frame to look like:

# A tibble: 32 × 5
      id sex   months weight length
   <int> <chr> <chr>   <dbl>  <dbl>
 1  1001 F     3           9     17
 2  1001 F     6          13     18
 3  1001 F     9          16     19
 4  1001 F     12         17     21
 5  1002 F     3          11     19
 6  1002 F     6          16     21
 7  1002 F     9          17     23
 8  1002 F     12         20     23
 9  1003 M     3          17     23
10  1003 M     6          20     27
# ℹ 22 more rows

Next, we’ll walk through getting to this result step-by-step.

we are once again starting with a person-level data frame, and we once again want to restructure it to a person-period data frame. This is the result we get if we use the same code we previously used to restructure the data frame that didn’t include each baby’s length:

# A tibble: 32 × 8
      id sex   length_3 length_6 length_9 length_12 months weight
   <int> <chr>    <dbl>    <dbl>    <dbl>     <dbl> <chr>   <dbl>
 1  1001 F           17       18       19        21 3           9
 2  1001 F           17       18       19        21 6          13
 3  1001 F           17       18       19        21 9          16
 4  1001 F           17       18       19        21 12         17
 5  1002 F           19       21       23        23 3          11
 6  1002 F           19       21       23        23 6          16
 7  1002 F           19       21       23        23 9          17
 8  1002 F           19       21       23        23 12         20
 9  1003 M           23       27       30        33 3          17
10  1003 M           23       27       30        33 6          20
# ℹ 22 more rows

Because we aren’t passing any of the length_ columns to the cols argument, pivot_longer() is treating them like the other time-invariant variables (i.e., id and sex). Their values are just being recycled across every row within each id. So, let’s add the length_ columns to the cols argument and see what happens:

# A tibble: 64 × 4
      id sex   months    weight
   <int> <chr> <chr>      <dbl>
 1  1001 F     3              9
 2  1001 F     6             13
 3  1001 F     9             16
 4  1001 F     12            17
 5  1001 F     length_3      17
 6  1001 F     length_6      18
 7  1001 F     length_9      19
 8  1001 F     length_12     21
 9  1002 F     3             11
10  1002 F     6             16
# ℹ 54 more rows

👆Here’s what we did above:

we passed the weight_ and length_ columns to the cols argument indirectly by passing the value c(-id, -sex). Basically, this tells pivot_longer() that we would like to pivot every column except id and sex.

Now, we are pivoting both the weight_ columns and the length_ columns. That’s an improvement. However, we obviously still don’t have the result we want.

Remember that the value passed to the names_prefix argument is used to remove matching text from the start of each variable name. Passing the value "weight_" to the names_prefix argument made sense when all of our pivoted columns began with the character sting “weight_”. Now, however, some of our pivoted columns begin with the character string “length_”. That’s why we are still seeing values in the months column like length_3, length_6, and so on.

Now, your first instinct might be to just add "length_" to the names_prefix argument. Unfortunately, that doesn’t work:

Warning in gsub(vec_paste0("^", names_prefix), "", cols): argument 'pattern'
has length > 1 and only the first element will be used

# A tibble: 64 × 4
      id sex   months    weight
   <int> <chr> <chr>      <dbl>
 1  1001 F     3              9
 2  1001 F     6             13
 3  1001 F     9             16
 4  1001 F     12            17
 5  1001 F     length_3      17
 6  1001 F     length_6      18
 7  1001 F     length_9      19
 8  1001 F     length_12     21
 9  1002 F     3             11
10  1002 F     6             16
# ℹ 54 more rows

Instead, we need to drop the names_prefix argument altogether before we can move forward to the correct solution:

# A tibble: 64 × 4
      id sex   months    weight
   <int> <chr> <chr>      <dbl>
 1  1001 F     weight_3       9
 2  1001 F     weight_6      13
 3  1001 F     weight_9      16
 4  1001 F     weight_12     17
 5  1001 F     length_3      17
 6  1001 F     length_6      18
 7  1001 F     length_9      19
 8  1001 F     length_12     21
 9  1002 F     weight_3      11
10  1002 F     weight_6      16
# ℹ 54 more rows

Additionally, not all the values in the third column (i.e., weight) are weights. Half of those values are lengths. So, we also need to drop the values_to argument:

# A tibble: 64 × 4
      id sex   months    value
   <int> <chr> <chr>     <dbl>
 1  1001 F     weight_3      9
 2  1001 F     weight_6     13
 3  1001 F     weight_9     16
 4  1001 F     weight_12    17
 5  1001 F     length_3     17
 6  1001 F     length_6     18
 7  1001 F     length_9     19
 8  1001 F     length_12    21
 9  1002 F     weight_3     11
10  1002 F     weight_6     16
# ℹ 54 more rows
…
we obviously want to character string that comes after the underscore to be called “months”. However, we can’t call the character string in front of the underscore “weight” because this column isn’t just identifying rows that contain weights. Similarly, we can’t call the character string in front of the underscore “length” because this column isn’t just identifying rows that contain lengths. For lack of a better idea, let’s just call it “measure”.

# A tibble: 64 × 5
      id sex   measure months value
   <int> <chr> <chr>   <chr>  <dbl>
 1  1001 F     weight  3          9
 2  1001 F     weight  6         13
 3  1001 F     weight  9         16
 4  1001 F     weight  12        17
 5  1001 F     length  3         17
 6  1001 F     length  6         18
 7  1001 F     length  9         19
 8  1001 F     length  12        21
 9  1002 F     weight  3         11
10  1002 F     weight  6         16
# ℹ 54 more rows
…
Now, let’s add the .value special value to our code:

# A tibble: 32 × 5
      id sex   months weight length
   <int> <chr>  <int>  <dbl>  <dbl>
 1  1001 F          3      9     17
 2  1001 F          6     13     18
 3  1001 F          9     16     19
 4  1001 F         12     17     21
 5  1002 F          3     11     19
 6  1002 F          6     16     21
 7  1002 F          9     17     23
 8  1002 F         12     20     23
 9  1003 M          3     17     23
10  1003 M          6     20     27
# ℹ 22 more rows
…
