Appendix: Alternative table formats | R for Epidemiology
…
High school graduate

24.13.3 Using the datatable function

DT::datatable(demo)

24.14 Larger data frame

aws <- readxl::read_excel("/Users/bradcannell/Dropbox/Datasets/Aging Women Study/aws.xlsx")

24.14.1 Default method for printing the data frame to the screen

head(aws, 100)

## # A tibble: 100 x 71
##        id   obs  days ndays years age_days   age   agec agestrat physfun
##     <dbl> <dbl> <dbl> <dbl> <dbl>    <dbl> <dbl>  <dbl>    <dbl>   <dbl>
##  1 100001     1     0     0     0    19722    54 -6.01         1      70
##  2 100003     1     0     0     0    22645    62  2.00         2      95
##  3 100004     1     0     0     0    23375    64  4.00         2     100
##  4 100005     1     0     0     0    25158    69  8.88         2      95
##  5 100006     1     0     0     0    19343    53 -7.04         1     100
##  6 100008     1     0     0     0    22646    62  2            2      80
##  7 100009     1     0     0     0    20816    57 -3.01         1      NA
##  8 100010     1     0     0     0    22568    62  1.79         2      90
##  9 100012     1     0     0     0    21873    60 -0.115        2      95
## 10 100013     1     0     0     0    19686    54 -6.10         1      85
## # … with 90 more rows, and 61 more variables: tag_firstphysfun <dbl>,
## #   firstphysfun <dbl>, tag_spi <dbl>, spi_baseline <dbl>, spi_ever <dbl>,
## #   tag_lastphysfun <dbl>, lastphysfun <dbl>, physfundiff <dbl>, f393mse <dbl>,
## #   phyab <dbl>, phyab_d <dbl>, phyab_ever <dbl>, firstphyabobs <dbl>,
## #   firstphyab <dbl>, firstphyab_d <dbl>, verbab <dbl>, verbab_d <dbl>,
## #   verbab_ever <dbl>, firstverbabobs <dbl>, firstverbab <dbl>,
## #   firstverbab_d <dbl>, abuse_d <dbl>, abuse_ever <dbl>, firstabobs <dbl>,
## #   firstab <dbl>, abuse4cat <dbl>, abuse4cat_ij <dbl>, abuse4cat_ever <dbl>,
## #   age_abusegroup <dbl>, age_abusegroup4 <dbl>, raceeth <dbl>, married <dbl>,
…
