25 Creating and modifying columns | R for Epidemiology
…
It’s not important that you fully understand the sample() function at this point. I’m just including it for those of you who are interested in simulating some slightly more complex data than we have simulated so far. The rest of you can just copy and paste the code if you want to follow along.

25.5.1 Adding or modifying a single column

This is probably the simplest case of adding a new column. We are going to use mutate() to add a single new column to the drug_trial data frame. Let’s say we want to add a column called complete that is equal to 1 if the participant showed up for all follow-up visits and equal to 0 if they didn’t. In this case, we simulated our data in such a way that we have complete follow-up for every participant. So, the value for complete should be 0 in all 60 rows of the data frame. We can do this in a few different ways.

drug_trial %>% 
  mutate(complete = c(
    0, 0, 0, 0, 0, 0, 0, 0, 0, 0, 0, 0, 0, 0, 0, 0, 0, 0, 0, 0, 0, 0, 0, 0, 0, 
    0, 0, 0, 0, 0, 0, 0, 0, 0, 0, 0, 0, 0, 0, 0, 0, 0, 0, 0, 0, 0, 0, 0, 0, 0, 
    0, 0, 0, 0, 0, 0, 0, 0, 0, 0)
  )

## # A tibble: 60 x 9
##       id  year   age drug    se_headache se_diarrhea se_dry_mouth    mi complete
##    <int> <int> <int> <chr>         <int>       <int>        <int> <int>    <dbl>
##  1     1     0    65 Active            0           1            1     0        0
##  2     1     1    65 Active            1           1            1     0        0
##  3     1     2    65 Active            1           1            0     0        0
##  4     2     0    49 Active            1           1            1     0        0
##  5     2     1    49 Active            0           0            1     0        0
##  6     2     2    49 Active            1           1            1     0        0
##  7     3     0    48 Placebo           0           0            0     0        0
##  8     3     1    48 Placebo           0           0            0     0        0
##  9     3     2    48 Placebo           0           0            0     0        0
## 10     4     0    37 Placebo           0           0            0     0        0
## # … with 50 more rows

So, that works, but typing that out is no fun. Not to mention, this isn’t scalable at all. What if we needed 1,000 zeros? There’s actually a much easier way to get the result above, which may surprise you. Take a look 👀:

drug_trial %>% 
  mutate(complete = 0)

## # A tibble: 60 x 9
##       id  year   age drug    se_headache se_diarrhea se_dry_mouth    mi complete
##    <int> <int> <int> <chr>         <int>       <int>        <int> <int>    <dbl>
##  1     1     0    65 Active            0           1            1     0        0
##  2     1     1    65 Active            1           1            1     0        0
##  3     1     2    65 Active            1           1            0     0        0
##  4     2     0    49 Active            1           1            1     0        0
##  5     2     1    49 Active            0           0            1     0        0
##  6     2     2    49 Active            1           1            1     0        0
##  7     3     0    48 Placebo           0           0            0     0        0
##  8     3     1    48 Placebo           0           0            0     0        0
##  9     3     2    48 Placebo           0           0            0     0        0
## 10     4     0    37 Placebo           0           0            0     0        0
## # … with 50 more rows
…
This doesn’t work, but it actually isn’t for the reason you may be thinking. Because 30 * 2 = 60, the length of the longer vector (60) is an integer multiple (30) of the length of the shorter vector (2). However, tidyverse functions throw errors when you try to recycle anything other than a single number. They are designed this way to protect you from accidently getting unexpected results. So, I’m going to switch back over to using base R to round out our discussion of the recycling rules. Let’s try our example above again using base R:

drug_trial$complete <- c(0,1)

## Error: Assigned data `c(0, 1)` must be compatible with existing data.
## x Existing data has 60 rows.
## x Assigned data has 2 rows.
## ℹ Only vectors of size 1 are recycled.

drug_trial

## # A tibble: 60 x 8
##       id  year   age drug    se_headache se_diarrhea se_dry_mouth    mi
##    <int> <int> <int> <chr>         <int>       <int>        <int> <int>
##  1     1     0    65 Active            0           1            1     0
##  2     1     1    65 Active            1           1            1     0
##  3     1     2    65 Active            1           1            0     0
##  4     2     0    49 Active            1           1            1     0
##  5     2     1    49 Active            0           0            1     0
##  6     2     2    49 Active            1           1            1     0
##  7     3     0    48 Placebo           0           0            0     0
##  8     3     1    48 Placebo           0           0            0     0
##  9     3     2    48 Placebo           0           0            0     0
## 10     4     0    37 Placebo           0           0            0     0
## # … with 50 more rows
…
nums + c(1, 2, 3)

## Warning in nums + c(1, 2, 3): longer object length is not a multiple of shorter
## object length

##  [1]  2  4  6  5  7  9  8 10 12 11

Yep, we get an error. 10 / 3 = 3.333333 – not an integer. Because there is no integer value that we can multiply by 3 to get the number 10, R throws us an error telling us that it isn’t able to use the recycling rules.

Now that you understand R’s recycling rules, let’s return to our motivating example.

drug_trial %>% 
  mutate(complete = 0)

## # A tibble: 60 x 9
##       id  year   age drug    se_headache se_diarrhea se_dry_mouth    mi complete
##    <int> <int> <int> <chr>         <int>       <int>        <int> <int>    <dbl>
##  1     1     0    65 Active            0           1            1     0        0
##  2     1     1    65 Active            1           1            1     0        0
##  3     1     2    65 Active            1           1            0     0        0
##  4     2     0    49 Active            1           1            1     0        0
##  5     2     1    49 Active            0           0            1     0        0
##  6     2     2    49 Active            1           1            1     0        0
##  7     3     0    48 Placebo           0           0            0     0        0
##  8     3     1    48 Placebo           0           0            0     0        0
##  9     3     2    48 Placebo           0           0            0     0        0
## 10     4     0    37 Placebo           0           0            0     0        0
## # … with 50 more rows

This method works, but not always. And, it can sometimes give us intended results. You may have originally thought to yourself, “we’ve already learned the rep() function. Let’s use that.” In fact, that’s a great idea!

drug_trial %>% 
  mutate(complete = rep(0, 60))

## # A tibble: 60 x 9
##       id  year   age drug    se_headache se_diarrhea se_dry_mouth    mi complete
##    <int> <int> <int> <chr>         <int>       <int>        <int> <int>    <dbl>
##  1     1     0    65 Active            0           1            1     0        0
##  2     1     1    65 Active            1           1            1     0        0
##  3     1     2    65 Active            1           1            0     0        0
##  4     2     0    49 Active            1           1            1     0        0
##  5     2     1    49 Active            0           0            1     0        0
##  6     2     2    49 Active            1           1            1     0        0
##  7     3     0    48 Placebo           0           0            0     0        0
##  8     3     1    48 Placebo           0           0            0     0        0
##  9     3     2    48 Placebo           0           0            0     0        0
## 10     4     0    37 Placebo           0           0            0     0        0
## # … with 50 more rows

That’s a lot less typing than the first method we tried, and it also has the added benefit of providing code that is easier for humans to read. We can both look at the code we used in the first method and tell that there are a bunch of zeros, but it’s hard to guess exactly how many, and it’s hard to feel completely confident that there isn’t a 1 in there somewhere that our eyes are missing. By contrast, it’s easy to look at rep(0, 60) and know that there are exactly 60 zeros, and only 60 zeros.

25.5.3 Using existing variables in name-value pairs

In the example above, we create a new column called complete by directly supplying values for that column in the name-value pair. In my experience, it is probably more common to create new columns in our data frames by combining or transforming the values of columns that already exist in our data frame. You’ve already seen an example of doing so when we created factor versions of variables. As an additional example, we could create a factor version of our mi variable like this:

drug_trial %>% 
  mutate(mi_f = factor(mi, c(0, 1), c("No", "Yes")))

## # A tibble: 60 x 9
##       id  year   age drug    se_headache se_diarrhea se_dry_mouth    mi mi_f 
##    <int> <int> <int> <chr>         <int>       <int>        <int> <int> <fct>
##  1     1     0    65 Active            0           1            1     0 No   
##  2     1     1    65 Active            1           1            1     0 No   
##  3     1     2    65 Active            1           1            0     0 No   
##  4     2     0    49 Active            1           1            1     0 No   
##  5     2     1    49 Active            0           0            1     0 No   
##  6     2     2    49 Active            1           1            1     0 No   
##  7     3     0    48 Placebo           0           0            0     0 No   
##  8     3     1    48 Placebo           0           0            0     0 No   
##  9     3     2    48 Placebo           0           0            0     0 No   
## 10     4     0    37 Placebo           0           0            0     0 No   
## # … with 50 more rows

Notice that in the code above, we didn’t tell R what values to use for mi_f by typing them explicitly in the name-value pair. Instead, we told R to go get the values of the column mi, do some stuff to those values, and then assign those modified values to a column in the data frame and name that column mi_f.

Here’s another example. It’s common to mean-center numeric values for many different kinds of analyses. For example, this is often done in regression analysis to aid in the interpretation of regression coefficients. We can easily mean-center numeric variables inside our mutate() function like so:

drug_trial %>% 
  mutate(age_center = age - mean(age))

## # A tibble: 60 x 9
##       id  year   age drug  se_headache se_diarrhea se_dry_mouth    mi age_center
##    <int> <int> <int> <chr>       <int>       <int>        <int> <int>      <dbl>
##  1     1     0    65 Acti…           0           1            1     0       11.3
##  2     1     1    65 Acti…           1           1            1     0       11.3
##  3     1     2    65 Acti…           1           1            0     0       11.3
##  4     2     0    49 Acti…           1           1            1     0       -4.7
##  5     2     1    49 Acti…           0           0            1     0       -4.7
##  6     2     2    49 Acti…           1           1            1     0       -4.7
##  7     3     0    48 Plac…           0           0            0     0       -5.7
##  8     3     1    48 Plac…           0           0            0     0       -5.7
##  9     3     2    48 Plac…           0           0            0     0       -5.7
## 10     4     0    37 Plac…           0           0            0     0      -16.7
## # … with 50 more rows

Notice how succinctly we were able to express this fairly complicated task. We had to figure out the find the mean of the variable age in the drug_trial data frame, subtract that value from the value for age in each row of the data frame, and then create a new column in the data frame containing the mean-centered values. Because of the fact that mutate()’s name-value pairs can accept complex expressions a value, and because all of the functions used in the code above are vectorized, we can perform this task using only a single, easy-to-read line of code (age_center = age - mean(age)).

25.5.4 Adding or modifying multiple columns

In all of the examples above, we passed a single name-value pair to the ... argument of the mutate() function. If we want to create or modify multiple columns, we don’t need to keep typing the mutate() function over and over. We can simply pass multiple name-value pairs, separated by columns, to the ... argument. And, there is no limit to the number of pairs we can pass. This is part of the beauty of the ... argument in R. For example, we have three variables in drug_trial that capture information about whether or not the participant reported side effects including headache, diarrhea, and dry mouth. Currently, those are all stored as integer vectors that can take the values 0 and 1. Let’s say that we want to also create factor versions of those vectors:

drug_trial %>% 
  mutate(
    se_headache_f  = factor(se_headache, c(0, 1), c("No", "Yes")),
    se_diarrhea_f  = factor(se_diarrhea, c(0, 1), c("N0", "Yes")),
    se_dry_mouth_f = factor(se_dry_mouth, c(0, 1), c("No", "Yes"))
  )

## # A tibble: 60 x 11
##       id  year   age drug  se_headache se_diarrhea se_dry_mouth    mi
##    <int> <int> <int> <chr>       <int>       <int>        <int> <int>
##  1     1     0    65 Acti…           0           1            1     0
##  2     1     1    65 Acti…           1           1            1     0
##  3     1     2    65 Acti…           1           1            0     0
##  4     2     0    49 Acti…           1           1            1     0
##  5     2     1    49 Acti…           0           0            1     0
##  6     2     2    49 Acti…           1           1            1     0
##  7     3     0    48 Plac…           0           0            0     0
##  8     3     1    48 Plac…           0           0            0     0
##  9     3     2    48 Plac…           0           0            0     0
## 10     4     0    37 Plac…           0           0            0     0
## # … with 50 more rows, and 3 more variables: se_headache_f <fct>,
## #   se_diarrhea_f <fct>, se_dry_mouth_f <fct>
…
For these reasons (and others), programmers of many languages – including R – are taught the DRY principle. DRY stands for don’t repeat yourself. We will discuss the DRY principle again in the chapter on repeated operations, but for now, it just means that you typically don’t want to type code that is the same (or nearly the same) over and over in your programs. Here’s one way we could reduce the repetition in the code above:

# Create a vector of 0/1 levels that can be reused below.
yn_levs <- c(0, 1)
# Create a vector of "No"/"Yes" labels that can be reused below.
yn_labs <- c("No", "Yes")

drug_trial %>% 
  mutate(
    se_headache_f  = factor(se_headache, yn_levs, yn_labs),
    se_diarrhea_f  = factor(se_diarrhea, yn_levs, yn_labs),
    se_dry_mouth_f = factor(se_dry_mouth, yn_levs, yn_labs)
  )

## # A tibble: 60 x 11
##       id  year   age drug  se_headache se_diarrhea se_dry_mouth    mi
##    <int> <int> <int> <chr>       <int>       <int>        <int> <int>
##  1     1     0    65 Acti…           0           1            1     0
##  2     1     1    65 Acti…           1           1            1     0
##  3     1     2    65 Acti…           1           1            0     0
##  4     2     0    49 Acti…           1           1            1     0
##  5     2     1    49 Acti…           0           0            1     0
##  6     2     2    49 Acti…           1           1            1     0
##  7     3     0    48 Plac…           0           0            0     0
##  8     3     1    48 Plac…           0           0            0     0
##  9     3     2    48 Plac…           0           0            0     0
## 10     4     0    37 Plac…           0           0            0     0
## # … with 50 more rows, and 3 more variables: se_headache_f <fct>,
## #   se_diarrhea_f <fct>, se_dry_mouth_f <fct>

Notice that in the code above we type c(0, 1) and c("No", "Yes") once each instead of 3 times each. In the chapter on repeated operations we will learn techniques for removing even more repetition from the code above.

25.5.5 Rowwise mutations

In all the examples above we used the values from a single already existing variable in our name-value pair. However, we can also use the values from multiple variables in our name-value pairs.

For example, we have three variables in our drug_trial data that capture information about whether or not the participant reported side effects including headache, diarrhea, and dry mouth (sounds like every drug commercial that exists 😂). What if we want to know if our participants reported any side effect at each follow-up? That requires us to combine and transform data from across three different columns! This is one of those situations where there are many different ways we could accomplish this task, but I’m going to use dplyr’s rowwise() function to do so in the following code:

drug_trial %>% 
  rowwise() %>% 
  mutate(any_se_year = sum(se_headache, se_diarrhea, se_dry_mouth) > 0)

## # A tibble: 60 x 9
## # Rowwise: 
##       id  year   age drug  se_headache se_diarrhea se_dry_mouth    mi
##    <int> <int> <int> <chr>       <int>       <int>        <int> <int>
##  1     1     0    65 Acti…           0           1            1     0
##  2     1     1    65 Acti…           1           1            1     0
##  3     1     2    65 Acti…           1           1            0     0
##  4     2     0    49 Acti…           1           1            1     0
##  5     2     1    49 Acti…           0           0            1     0
##  6     2     2    49 Acti…           1           1            1     0
##  7     3     0    48 Plac…           0           0            0     0
##  8     3     1    48 Plac…           0           0            0     0
##  9     3     2    48 Plac…           0           0            0     0
## 10     4     0    37 Plac…           0           0            0     0
## # … with 50 more rows, and 1 more variable: any_se_year <lgl>
…
