46 Introduction to Regression Analysis | R for Epidemiology
…
For dichotomous variables that take the values 0 and 1 only, the mean is equal to the proportion of 1’s.
- 1, 1, 1, 0, 0
- Mean = (1 + 1 + 1 + 0 + 0) / 5 = 0.6
- Proportion of 1s = 3/5 = 0.6

diabetes <- tidyr::expand_grid(
  family_history = c(1, 0),
  diabetes       = c(1, 0)
) %>% 
  mutate(count = c(58, 196, 63, 381)) %>% 
  tidyr::uncount(count)

diabetes

## # A tibble: 698 × 2
##    family_history diabetes
##             <dbl>    <dbl>
##  1              1        1
##  2              1        1
##  3              1        1
##  4              1        1
##  5              1        1
##  6              1        1
##  7              1        1
##  8              1        1
##  9              1        1
## 10              1        1
## # ℹ 688 more rows
…
set.seed(123)
n <- 100
daat_waist <- tibble(
  waist    = rnorm(n, 39, 2),
  waist_c  = waist - 39,
  beta1    = rnorm(n, 3.45, 0.2),
  daat_bar = rnorm(n, 101, 8),
  daat     = daat_bar + (beta1 * waist_c)
)
daat_waist

## # A tibble: 100 × 5
##    waist waist_c beta1 daat_bar  daat
##    <dbl>   <dbl> <dbl>    <dbl> <dbl>
##  1  37.9  -1.12   3.31    119.  115. 
##  2  38.5  -0.460  3.50    111.  110. 
##  3  42.1   3.12   3.40     98.9 109. 
##  4  39.1   0.141  3.38    105.  106. 
##  5  39.3   0.259  3.26     97.7  98.5
##  6  42.4   3.43   3.44     97.2 109. 
##  7  39.9   0.922  3.29     94.7  97.7
##  8  36.5  -2.53   3.12     96.2  88.4
##  9  37.6  -1.37   3.37    114.  110. 
## 10  38.1  -0.891  3.63    101.   97.3
## # ℹ 90 more rows
…
46.3.2 Categorical regressor (large waist)

daat_waist <- daat_waist %>% 
  mutate(
    large_waist   = if_else(waist < mean(waist), 0, 1),
    large_waist_f = factor(large_waist, 0:1, c("No", "Yes"))
  )
daat_waist

## # A tibble: 100 × 7
##    waist waist_c beta1 daat_bar  daat large_waist large_waist_f
##    <dbl>   <dbl> <dbl>    <dbl> <dbl>       <dbl> <fct>        
##  1  37.9  -1.12   3.31    119.  115.            0 No           
##  2  38.5  -0.460  3.50    111.  110.            0 No           
##  3  42.1   3.12   3.40     98.9 109.            1 Yes          
##  4  39.1   0.141  3.38    105.  106.            0 No           
##  5  39.3   0.259  3.26     97.7  98.5           1 Yes          
##  6  42.4   3.43   3.44     97.2 109.            1 Yes          
##  7  39.9   0.922  3.29     94.7  97.7           1 Yes          
##  8  36.5  -2.53   3.12     96.2  88.4           0 No           
##  9  37.6  -1.37   3.37    114.  110.            0 No           
## 10  38.1  -0.891  3.63    101.   97.3           0 No           
## # ℹ 90 more rows
…
    age < 80 ~ sample(0:1, n, TRUE, c(.91, .09)),
    age < 85 ~ sample(0:1, n, TRUE, c(.84, .16)),
    age < 90 ~ sample(0:1, n, TRUE, c(.78, .22)),
    TRUE ~ sample(0:1, n, TRUE, c(.67, .33))
  ),
  dementia_f = factor(dementia, 0:1, c("No", "Yes")),
  em = case_when(
    dementia_f == "No"  ~ sample(0:1, n, TRUE, c(.9, .1)),
    dementia_f == "Yes" ~ sample(0:1, n, TRUE, c(.5, .5))
  ),
  em_f = factor(em, 0:1, c("No", "Yes"))
)
em_dementia

## # A tibble: 100 × 5
##      age dementia dementia_f    em em_f 
##    <int>    <int> <fct>      <int> <fct>
##  1    95        0 No             0 No   
##  2    79        0 No             0 No   
##  3    78        0 No             0 No   
##  4    67        0 No             1 Yes  
##  5    78        0 No             0 No   
##  6    89        0 No             0 No   
##  7    90        0 No             0 No   
##  8    91        0 No             0 No   
##  9    69        0 No             0 No   
## 10    91        1 Yes            1 Yes  
## # ℹ 90 more rows
…
drinks

## # A tibble: 100 × 3
##    problems   age drinks
##       <int> <dbl>  <int>
##  1        0  45.5      0
##  2        0  32.6      0
##  3        0  51.8      5
##  4        0  69.0      0
##  5        0  27.3      1
##  6        0  59.8      4
##  7        1  36.0      0
##  8        0  68.2      0
##  9        0  63.8      0
## 10        0  41.6      0
## # ℹ 90 more rows
…
