43 Measures of Occurrence | R for Epidemiology
…
# Print pop_10 to the screen
pop_10

## # A tibble: 140 × 5
##    person month status   person_f status_f
##     <int> <int> <chr>    <fct>    <fct>   
##  1      1    -1 Diseased 01       Diseased
##  2      1     0 Diseased 01       Diseased
##  3      1     1 Diseased 01       Diseased
##  4      1     2 Diseased 01       Diseased
##  5      1     3 Diseased 01       Diseased
##  6      1     4 Diseased 01       Diseased
##  7      1     5 Diseased 01       Diseased
##  8      1     6 Diseased 01       Diseased
##  9      1     7 Diseased 01       Diseased
## 10      1     8 Diseased 01       Diseased
## # ℹ 130 more rows
…
