31 Restructuring data frames | R for Epidemiology
…
Now, let’s use the pivot_longer() function to restructure the babies data frame to a person-period format:

babies_long <- babies %>% 
  pivot_longer(
    cols         = starts_with("weight"),
    names_to     = "months",
    names_prefix = "weight_",
    values_to    = "weight"
  ) %>% 
  print()

## # A tibble: 32 × 4
##       id sex   months weight
##    <int> <chr> <chr>   <dbl>
##  1  1001 F     3           9
##  2  1001 F     6          13
##  3  1001 F     9          16
##  4  1001 F     12         17
##  5  1002 F     3          11
##  6  1002 F     6          16
##  7  1002 F     9          17
##  8  1002 F     12         20
##  9  1003 M     3          17
## 10  1003 M     6          20
## # … with 22 more rows
…
The fourth argument to the pivot_longer() function is the names_prefix argument. You should pass the names_prefix argument a regular expression that tells pivot_longer() what to remove from the start of each of the previous column names that we pivoted. By default, the value passed to the names_prefix argument is NULL (i.e., it doesn’t remove anything). We passed the value "weight_" to the names_prefix argument. This tells pivot_longer() that we want to remove the character string “weight_” from the start of each of the previous column names that we pivoted. For example, removing “weight_” from “weight_3” results in the value “3,” removing “weight_” from “weight_6” results in the value “6,” and so on. Again, I will show you what the names_prefix argument does below.

The eighth argument (we left the 5th, 6th, and 7th arguments at their default values) to the pivot_longer() function is the values_to argument. You should pass the values_to argument a character string or character vector that tells pivot_longer() what you want to name the column that will contain the values from the columns that were pivoted. By default, the value passed to the values_to argument is "value". We passed the value "weight" to the values_to argument. This tells pivot_longer() what to name the column that contains values from the columns that were pivoted. I will demonstrate what the values_to argument does below as well.

31.2.1 The names_to argument

The official help documentation for pivot_longer() says that the value passed to the names_to argument should be “a string specifying the name of the column to create from the data stored in the column names of data.” I don’t blame you if you feel like that’s a little bit difficult to wrap your head around. Let’s take a look at the result we get when we don’t adjust the value passed to the names_to argument:

babies %>% 
  pivot_longer(
    cols = starts_with("weight")
  )

## # A tibble: 32 × 4
##       id sex   name      value
##    <int> <chr> <chr>     <dbl>
##  1  1001 F     weight_3      9
##  2  1001 F     weight_6     13
##  3  1001 F     weight_9     16
##  4  1001 F     weight_12    17
##  5  1002 F     weight_3     11
##  6  1002 F     weight_6     16
##  7  1002 F     weight_9     17
##  8  1002 F     weight_12    20
##  9  1003 M     weight_3     17
## 10  1003 M     weight_6     20
## # … with 22 more rows
…
As you can see, when we only pass a value to the cols argument, pivot_longer() creates a new column that contains the column names from the data frame passed to the data argument, that are being pivoted into long format. By default, pivot_longer() names that column name. However, that name isn’t very informative. We will go ahead and change the column name to “months” because we know that this column will eventually contain month values. We do so by passing the value "months" to the names_to argument like this:

babies %>% 
  pivot_longer(
    cols     = starts_with("weight"),
    names_to = "months"
  )

## # A tibble: 32 × 4
##       id sex   months    value
##    <int> <chr> <chr>     <dbl>
##  1  1001 F     weight_3      9
##  2  1001 F     weight_6     13
##  3  1001 F     weight_9     16
##  4  1001 F     weight_12    17
##  5  1002 F     weight_3     11
##  6  1002 F     weight_6     16
##  7  1002 F     weight_9     17
##  8  1002 F     weight_12    20
##  9  1003 M     weight_3     17
## 10  1003 M     weight_6     20
## # … with 22 more rows

31.2.2 The names_prefix argument

The official help documentation for pivot_longer() says that the value passed to the names_prefix argument should be “a regular expression used to remove matching text from the start of each variable name.” Passing a value to this argument can be really useful when column names actually contain data values, which was the case above. Take the column name “weight_3” for example. The “weight” part is truly a column name – it tells us what the values in that column are. They are weights. The “3” part is actually a separate data value meaning “3 months.” If we can remove the “weight_” part of the column name, then what remains is a useful column of information – time measured in months. Passing the value “weight_” to the names_prefix argument does exactly that.

babies %>% 
  pivot_longer(
    cols         = starts_with("weight"),
    names_to     = "months",
    names_prefix = "weight_"
  )

## # A tibble: 32 × 4
##       id sex   months value
##    <int> <chr> <chr>  <dbl>
##  1  1001 F     3          9
##  2  1001 F     6         13
##  3  1001 F     9         16
##  4  1001 F     12        17
##  5  1002 F     3         11
##  6  1002 F     6         16
##  7  1002 F     9         17
##  8  1002 F     12        20
##  9  1003 M     3         17
## 10  1003 M     6         20
## # … with 22 more rows

Now, the value passed to the names_prefix argument can be any regular expression. So, we could have written a more complicated, and flexible, regular expression like this:

babies %>% 
  pivot_longer(
    cols         = starts_with("weight"),
    names_to     = "months",
    names_prefix = "\\w+_"
  )

## # A tibble: 32 × 4
##       id sex   months value
##    <int> <chr> <chr>  <dbl>
##  1  1001 F     3          9
##  2  1001 F     6         13
##  3  1001 F     9         16
##  4  1001 F     12        17
##  5  1002 F     3         11
##  6  1002 F     6         16
##  7  1002 F     9         17
##  8  1002 F     12        20
##  9  1003 M     3         17
## 10  1003 M     6         20
## # … with 22 more rows
…
By default, pivot_longer() names that column “value.” However, we will once again want a more informative column name in our new data frame. So, we’ll go ahead and change the column name to “weight” because that’s what the values in that column are – weights. We do so by passing the value "weight" to the values_to argument like this:

babies %>% 
  pivot_longer(
    cols         = starts_with("weight"),
    names_to     = "months",
    names_prefix = "weight_",
    values_to    = "weight"
  )

## # A tibble: 32 × 4
##       id sex   months weight
##    <int> <chr> <chr>   <dbl>
##  1  1001 F     3           9
##  2  1001 F     6          13
##  3  1001 F     9          16
##  4  1001 F     12         17
##  5  1002 F     3          11
##  6  1002 F     6          16
##  7  1002 F     9          17
##  8  1002 F     12         20
##  9  1003 M     3          17
## 10  1003 M     6          20
## # … with 22 more rows

31.2.4 The names_transform argument

As one little final touch on the data restructuring at hand, it would be nice to coerce the months column from type character to type integer. We already know how to do this with mutate():

babies %>% 
  pivot_longer(
    cols         = starts_with("weight"),
    names_to     = "months",
    names_prefix = "weight_",
    values_to    = "weight"
  ) %>% 
  mutate(months = as.integer(months))

## # A tibble: 32 × 4
##       id sex   months weight
##    <int> <chr>  <int>  <dbl>
##  1  1001 F          3      9
##  2  1001 F          6     13
##  3  1001 F          9     16
##  4  1001 F         12     17
##  5  1002 F          3     11
##  6  1002 F          6     16
##  7  1002 F          9     17
##  8  1002 F         12     20
##  9  1003 M          3     17
## 10  1003 M          6     20
## # … with 22 more rows

However, we can also do this directly inside the pivot_longer() function by passing a list of column names paired with type coercion functions. For example:

babies %>% 
  pivot_longer(
    cols            = starts_with("weight"),
    names_to        = "months",
    names_prefix    = "weight_",
    names_transform = list(months = as.integer),
    values_to       = "weight"
  )

## # A tibble: 32 × 4
##       id sex   months weight
##    <int> <chr>  <int>  <dbl>
##  1  1001 F          3      9
##  2  1001 F          6     13
##  3  1001 F          9     16
##  4  1001 F         12     17
##  5  1002 F          3     11
##  6  1002 F          6     16
##  7  1002 F          9     17
##  8  1002 F         12     20
##  9  1003 M          3     17
## 10  1003 M          6     20
## # … with 22 more rows
…
Here is what we want our final data frame to look like:

babies %>% 
  pivot_longer(
    cols      = c(-id, -sex),
    names_to  = c(".value", "months"),
    names_sep = "_"
  )

## # A tibble: 32 × 5
##       id sex   months weight length
##    <int> <chr> <chr>   <dbl>  <dbl>
##  1  1001 F     3           9     17
##  2  1001 F     6          13     18
##  3  1001 F     9          16     19
##  4  1001 F     12         17     21
##  5  1002 F     3          11     19
##  6  1002 F     6          16     21
##  7  1002 F     9          17     23
##  8  1002 F     12         20     23
##  9  1003 M     3          17     23
## 10  1003 M     6          20     27
## # … with 22 more rows

Next, we’ll walk through getting to this result step-by-step.

We are once again starting with a person-level data frame, and we once again want to restructure it to a person-period data frame. This is the result we get if we use the same code we previously used to restructure the data frame that didn’t include each baby’s length:

babies_long <- babies %>% 
  pivot_longer(
    cols         = starts_with("weight"),
    names_to     = "months",
    names_prefix = "weight_",
    values_to    = "weight"
  ) %>% 
  print()

## # A tibble: 32 × 8
##       id sex   length_3 length_6 length_9 length_12 months weight
##    <int> <chr>    <dbl>    <dbl>    <dbl>     <dbl> <chr>   <dbl>
##  1  1001 F           17       18       19        21 3           9
##  2  1001 F           17       18       19        21 6          13
##  3  1001 F           17       18       19        21 9          16
##  4  1001 F           17       18       19        21 12         17
##  5  1002 F           19       21       23        23 3          11
##  6  1002 F           19       21       23        23 6          16
##  7  1002 F           19       21       23        23 9          17
##  8  1002 F           19       21       23        23 12         20
##  9  1003 M           23       27       30        33 3          17
## 10  1003 M           23       27       30        33 6          20
## # … with 22 more rows

Because we aren’t passing any of the length_ columns to the cols argument, pivot_longer() is treating them like the other time-invariant variables (i.e., id and sex). Their values are just being recycled across every row within each id. So, let’s add the length_ columns to the cols argument and see what happens:

babies_long <- babies %>% 
  pivot_longer(
    cols         = c(-id, -sex),
    names_to     = "months",
    names_prefix = "weight_",
    values_to    = "weight"
  ) %>% 
  print()

## # A tibble: 64 × 4
##       id sex   months    weight
##    <int> <chr> <chr>      <dbl>
##  1  1001 F     3              9
##  2  1001 F     6             13
##  3  1001 F     9             16
##  4  1001 F     12            17
##  5  1001 F     length_3      17
##  6  1001 F     length_6      18
##  7  1001 F     length_9      19
##  8  1001 F     length_12     21
##  9  1002 F     3             11
## 10  1002 F     6             16
## # … with 54 more rows
…
Now, your first instinct might be to just add "length_" to the names_prefix argument. Unfortunately, that doesn’t work:

babies_long <- babies %>% 
  pivot_longer(
    cols         = c(-id, -sex),
    names_to     = "months",
    names_prefix = c("weight_", "length_"),
    values_to    = "weight"
  ) %>% 
  print()

## Warning in gsub(paste0("^", names_prefix), "", names(cols)): argument 'pattern' has length > 1 and only the first element will be used

## # A tibble: 64 × 4
##       id sex   months    weight
##    <int> <chr> <chr>      <dbl>
##  1  1001 F     3              9
##  2  1001 F     6             13
##  3  1001 F     9             16
##  4  1001 F     12            17
##  5  1001 F     length_3      17
##  6  1001 F     length_6      18
##  7  1001 F     length_9      19
##  8  1001 F     length_12     21
##  9  1002 F     3             11
## 10  1002 F     6             16
## # … with 54 more rows

Instead, we need to drop the names_prefix argument altogether before we can move forward to the correct solution:

babies_long <- babies %>% 
  pivot_longer(
    cols      = c(-id, -sex),
    names_to  = "months",
    values_to = "weight"
  ) %>% 
  print()

## # A tibble: 64 × 4
##       id sex   months    weight
##    <int> <chr> <chr>      <dbl>
##  1  1001 F     weight_3       9
##  2  1001 F     weight_6      13
##  3  1001 F     weight_9      16
##  4  1001 F     weight_12     17
##  5  1001 F     length_3      17
##  6  1001 F     length_6      18
##  7  1001 F     length_9      19
##  8  1001 F     length_12     21
##  9  1002 F     weight_3      11
## 10  1002 F     weight_6      16
## # … with 54 more rows

Additionally, not all the values in the third column (i.e., weight) are weights. Half of those values are lengths. So, we also need to drop the values_to argument:

babies_long <- babies %>% 
  pivot_longer(
    cols     = c(-id, -sex),
    names_to = "months"
  ) %>% 
  print()

## # A tibble: 64 × 4
##       id sex   months    value
##    <int> <chr> <chr>     <dbl>
##  1  1001 F     weight_3      9
##  2  1001 F     weight_6     13
##  3  1001 F     weight_9     16
##  4  1001 F     weight_12    17
##  5  1001 F     length_3     17
##  6  1001 F     length_6     18
##  7  1001 F     length_9     19
##  8  1001 F     length_12    21
##  9  1002 F     weight_3     11
## 10  1002 F     weight_6     16
## # … with 54 more rows
…
We obviously want to character string that comes after the underscore to be called “months.” However, we can’t call the character string in front of the underscore “weight” because this column isn’t just identifying rows that contain weights. Similarly, we can’t call the character string in front of the underscore “length” because this column isn’t just identifying rows that contain lengths. For lack of a better idea, let’s just call it “measure.”

babies_long <- babies %>% 
  pivot_longer(
    cols      = c(-id, -sex),
    names_to  = c("measure", "months"),
    names_sep = "_"
  ) %>% 
  print()

## # A tibble: 64 × 5
##       id sex   measure months value
##    <int> <chr> <chr>   <chr>  <dbl>
##  1  1001 F     weight  3          9
##  2  1001 F     weight  6         13
##  3  1001 F     weight  9         16
##  4  1001 F     weight  12        17
##  5  1001 F     length  3         17
##  6  1001 F     length  6         18
##  7  1001 F     length  9         19
##  8  1001 F     length  12        21
##  9  1002 F     weight  3         11
## 10  1002 F     weight  6         16
## # … with 54 more rows
…
Now, let’s add the .value special value to our code:

babies_long <- babies %>% 
  pivot_longer(
    cols      = c(-id, -sex),
    names_to  = c(".value", "months"),
    names_sep = "_",
    names_transform = list(months = as.integer)
  ) %>% 
  print()

## # A tibble: 32 × 5
##       id sex   months weight length
##    <int> <chr>  <int>  <dbl>  <dbl>
##  1  1001 F          3      9     17
##  2  1001 F          6     13     18
##  3  1001 F          9     16     19
##  4  1001 F         12     17     21
##  5  1002 F          3     11     19
##  6  1002 F          6     16     21
##  7  1002 F          9     17     23
##  8  1002 F         12     20     23
##  9  1003 M          3     17     23
## 10  1003 M          6     20     27
## # … with 22 more rows
…
31.3 Pivoting wider

As previously discussed, the person-period, or long, data structure is usually preferable for longitudinal data analysis. However, there are times when the person-level data structure is preferable, or even necessary. Further, there are times when we have tables of analysis results, as opposed than actual data values, that we need to restructure for ease of interpretation. We will demonstrate how to do both below.

We’ll start by learning how to restructure, or reshape, our person-period babies_long data frame back to a person-level format. As a reminder, here is what our babies_long data frame currently looks like:

babies_long

## # A tibble: 32 × 5
##       id sex   months weight length
##    <int> <chr>  <int>  <dbl>  <dbl>
##  1  1001 F          3      9     17
##  2  1001 F          6     13     18
##  3  1001 F          9     16     19
##  4  1001 F         12     17     21
##  5  1002 F          3     11     19
##  6  1002 F          6     16     21
##  7  1002 F          9     17     23
##  8  1002 F         12     20     23
##  9  1003 M          3     17     23
## 10  1003 M          6     20     27
## # … with 22 more rows
…
