33 Writing functions | R for Epidemiology
…
                19.13, 21.48, 22.59, 24.96, 21.63, NA, 29.35, 21.76, 17.97, 
                22.31, 19.27, 24.07, 22.76, NA),
  bmi_3cat  = c(3, 1, 2, 3, 1, 2, 1, 1, 2, 2, 2, 3, 1, 1, 1, 1, 1, 1, 2, 1, 1, 
                1, 1, 3, 2, 1, 2, 2, 1, 2, 1, 2, 1, 1, NA, 2, 2, 2, 1, 1, 1, 1, 
                1, 1, 1, 1, 1, 1, 1, 2, NA, 3, 1, 1, 1, 1, 1, 1, 1, NA, 2, 1, 
                1, 1, 1, 1, 1, NA)
) %>% 
  mutate(
    age_group = factor(age_group, labels = c("Younger than 30", "30 and Older")),
    gender    = factor(gender, labels = c("Female", "Male")),
    bmi_3cat  = factor(bmi_3cat, labels = c("Normal", "Overweight", "Obese"))
  ) %>% 
  print()

## # A tibble: 68 x 7
##      age age_group       gender ht_in wt_lbs   bmi bmi_3cat  
##    <dbl> <fct>           <fct>  <dbl>  <dbl> <dbl> <fct>     
##  1    32 30 and Older    Male      70    216  31.0 Obese     
##  2    30 30 and Older    Female    63    106  18.8 Normal    
##  3    32 30 and Older    Female    62    145  26.5 Overweight
##  4    29 Younger than 30 Male      67    195  30.5 Obese     
##  5    24 Younger than 30 Female    67    143  22.4 Normal    
##  6    38 30 and Older    Female    58    125  26.1 Overweight
##  7    25 Younger than 30 Female    64    138  23.7 Normal    
##  8    24 Younger than 30 Male      69    140  20.7 Normal    
##  9    48 30 and Older    Male      65    158  26.3 Overweight
## 10    29 Younger than 30 Male      68    167  25.4 Overweight
## # … with 58 more rows
…
## Error in add(2): argument "y" is missing, with no default

Again, this aspect of the lexical scoping rules is something to be aware of, but generally isn’t a problem in practice.

33.6 Tidy evaluation

Now that you have all the basics of function writing under your belt, let’s take look at what happens when we try to write functions that use tidyverse package functions in the function body.

For this section, let’s return to our study data we used for the first example in this chapter. As a reminder, here’s what the data looks like:

study

## # A tibble: 68 x 7
##      age age_group       gender ht_in wt_lbs   bmi bmi_3cat  
##    <dbl> <fct>           <fct>  <dbl>  <dbl> <dbl> <fct>     
##  1    32 30 and Older    Male      70    216  31.0 Obese     
##  2    30 30 and Older    Female    63    106  18.8 Normal    
##  3    32 30 and Older    Female    62    145  26.5 Overweight
##  4    29 Younger than 30 Male      67    195  30.5 Obese     
##  5    24 Younger than 30 Female    67    143  22.4 Normal    
##  6    38 30 and Older    Female    58    125  26.1 Overweight
##  7    25 Younger than 30 Female    64    138  23.7 Normal    
##  8    24 Younger than 30 Male      69    140  20.7 Normal    
##  9    48 30 and Older    Male      65    158  26.3 Overweight
## 10    29 Younger than 30 Male      68    167  25.4 Overweight
## # … with 58 more rows
…
