27 Subsetting Data Frames – R 4 Epidemiology
…
age: Participant age a baseline. Must be between the ages of 35 and 75 at baseline to be eligible for the study.

drug: Drug the participant received, Placebo or active.

se_headache: Reported headaches side effect, Y/N.

se_diarrhea: Report diarrhea side effect, Y/N.

se_dry_mouth: Report dry mouth side effect, Y/N.

mi: Participant had myocardial infarction in study year, Y/N.

Actually, this data is slightly different than the data we used in the last chapter. Did you catch the difference? Take another look:

# A tibble: 60 × 7
    year   age drug    se_headache se_diarrhea se_dry_mouth    mi
   <int> <int> <chr>         <int>       <int>        <int> <int>
 1     0    65 Active            0           1            1     0
 2     1    65 Active            1           1            1     0
 3     2    65 Active            1           1            0     0
 4     0    49 Active            1           1            1     0
 5     1    49 Active            0           0            1     0
 6     2    49 Active            1           1            1     0
 7     0    48 Placebo           0           0            0     0
 8     1    48 Placebo           0           0            0     0
 9     2    48 Placebo           0           0            0     0
10     0    37 Placebo           0           0            0     0
# ℹ 50 more rows

we forgot to put a study id in our data. Because we simulated this data above, the best way to fix this oversite is to make the necessary change to the simulation code above. But, let’s pretend that someone sent us this data instead, and we have to add a new study id column to it. Well, we now know how to use the mutate() function to columns to our data frame. We can do so like this:

# A tibble: 60 × 8
    year   age drug    se_headache se_diarrhea se_dry_mouth    mi    id
   <int> <int> <chr>         <int>       <int>        <int> <int> <int>
 1     0    65 Active            0           1            1     0     1
 2     1    65 Active            1           1            1     0     1
 3     2    65 Active            1           1            0     0     1
 4     0    49 Active            1           1            1     0     2
 5     1    49 Active            0           0            1     0     2
 6     2    49 Active            1           1            1     0     2
 7     0    48 Placebo           0           0            0     0     3
 8     1    48 Placebo           0           0            0     0     3
 9     2    48 Placebo           0           0            0     0     3
10     0    37 Placebo           0           0            0     0     4
# ℹ 50 more rows

And now we have the study id in our data. But, by default R adds new columns as the rightmost column of the data frame. In terms of analysis, it doesn’t really matter where this column is located in our data. R couldn’t care less. However, when humans look at this data, they typically expect the study id (or some other identifier) to be the first column in the data frame. That is a job for select().

27.1 The select() function

# A tibble: 60 × 7
      id  year   age se_headache se_diarrhea se_dry_mouth    mi
   <int> <int> <int>       <int>       <int>        <int> <int>
 1     1     0    65           0           1            1     0
 2     1     1    65           1           1            1     0
 3     1     2    65           1           1            0     0
 4     2     0    49           1           1            1     0
 5     2     1    49           0           0            1     0
 6     2     2    49           1           1            1     0
 7     3     0    48           0           0            0     0
 8     3     1    48           0           0            0     0
 9     3     2    48           0           0            0     0
10     4     0    37           0           0            0     0
# ℹ 50 more rows
…
You can type ?select into your R console to view the help documentation for this function and follow along with the explanation below.

The first argument to the select() function is .data. The value passed to .data should always be a data frame. In this book, we will often pass data frames to the .data argument using the pipe operator (e.g., df %>% select()).

The second argument to the select() function is .... The value passed to the ... argument should column names or expressions that return column positions. We’ll dive deeper into this soon.

More generally, the select() function tells R which variables in your data frame to keep (or drop) and in what order.

The code above gave us the result we wanted. 👏 But, it can be tedious and error prone to manually type every variable name inside the select() function. Did you notice that we forgot the drug column “by accident”?

Thankfully, the select() function is one of several dplyr functions that accept tidy-select argument modifiers (i.e., functions and operators). In this chapter, we will show you some of the tidy-select argument modifiers we regularly use, but you can always type ?dplyr_tidy_select into your console to see a complete list.

In our little example above, we could have used the tidy-select everything() function to make our code easier to write and we wouldn’t have accidently missed the drug column. We can do so like this:

# A tibble: 60 × 8
      id  year   age drug    se_headache se_diarrhea se_dry_mouth    mi
   <int> <int> <int> <chr>         <int>       <int>        <int> <int>
 1     1     0    65 Active            0           1            1     0
 2     1     1    65 Active            1           1            1     0
 3     1     2    65 Active            1           1            0     0
 4     2     0    49 Active            1           1            1     0
 5     2     1    49 Active            0           0            1     0
 6     2     2    49 Active            1           1            1     0
 7     3     0    48 Placebo           0           0            0     0
 8     3     1    48 Placebo           0           0            0     0
 9     3     2    48 Placebo           0           0            0     0
10     4     0    37 Placebo           0           0            0     0
# ℹ 50 more rows

👆Here’s what we did above:

we used the select() function to change the order of the columns in the drug_trial data frame so that id would be the first variable in the data frame when reading from left to right.

Rather than explicitly typing the other column names, we used the everything() tidy-select function. As you may have guessed, everything() tells R to do X (in this keep) to all the other variables not explicitly mentioned.

For our next example, let’s go ahead and add our mean-centered age variable to our drug_trial data again. We did this for the first time in the last chapter, in case you missed.

# A tibble: 60 × 9
      id  year   age drug  se_headache se_diarrhea se_dry_mouth    mi age_center
   <int> <int> <int> <chr>       <int>       <int>        <int> <int>      <dbl>
 1     1     0    65 Acti…           0           1            1     0       11.3
 2     1     1    65 Acti…           1           1            1     0       11.3
 3     1     2    65 Acti…           1           1            0     0       11.3
 4     2     0    49 Acti…           1           1            1     0       -4.7
 5     2     1    49 Acti…           0           0            1     0       -4.7
 6     2     2    49 Acti…           1           1            1     0       -4.7
 7     3     0    48 Plac…           0           0            0     0       -5.7
 8     3     1    48 Plac…           0           0            0     0       -5.7
 9     3     2    48 Plac…           0           0            0     0       -5.7
10     4     0    37 Plac…           0           0            0     0      -16.7
# ℹ 50 more rows

One way we will often use select() is for performing quick little data checks. For example, let’s say that we wanted to make sure the code we wrote above actually did what we intended it to do. If we print the entire data frame to the screen, age and age_center aren’t directly side-by-side, and there’s a lot of other visual clutter from the other variables. In a case like this, we would use select() to get a clearer picture:

# A tibble: 60 × 2
     age age_center
   <int>      <dbl>
 1    65       11.3
 2    65       11.3
 3    65       11.3
 4    49       -4.7
 5    49       -4.7
 6    49       -4.7
 7    48       -5.7
 8    48       -5.7
 9    48       -5.7
10    37      -16.7
# ℹ 50 more rows

👆Here’s what we did above:

we used the select() function to view the age and age_center columns only.

we can type individual column names, separated by commas, into select() to return a data frame containing only those columns, and in that order.

⚠️Warning: Notice that we didn’t assign our result above to anything (i.e., there’s no drug_trial <-). If we had done so, the drug_trial data would have contained these two columns only. We didn’t want to drop the other columns. We could have assigned the result of the code to a different R object (e.g., check_age <-, but it wasn’t really necessary. We just wanted to quickly view age and age_center side-by-side for data checking purposes. When we’re satisfied that we coded it correctly, we can move on. There’s no need to save those results to an R object.

You may also recall that we wanted to subset the drug_trial data to include only the columns we needed for the rowwise demonstrations. Here is the code we used to do so:

# A tibble: 60 × 5
      id  year se_headache se_diarrhea se_dry_mouth
   <int> <int>       <int>       <int>        <int>
 1     1     0           0           1            1
 2     1     1           1           1            1
 3     1     2           1           1            0
 4     2     0           1           1            1
 5     2     1           0           0            1
 6     2     2           1           1            1
 7     3     0           0           0            0
 8     3     1           0           0            0
 9     3     2           0           0            0
10     4     0           0           0            0
# ℹ 50 more rows

👆Here’s what we did above:

we used the select() function to view the id year, se_headache, se_diarrhea, and se_dry_mouth columns only.

we used the tidy-select starts_with() function to select all the side effect variables.

we already know that we can use everything() to select all of the other variables in a data frame, but what if we just want to grab a range or group of other variables in a data frame? tidy-select makes it easy for us. Above, we used the starts_with() function to select all the columns with names that literally start with the letters “se”. Because all of the side effect columns are directly next to each other (i.e., no columns in between them) we could have also used the colon operator : like this:

# A tibble: 60 × 5
      id  year se_headache se_diarrhea se_dry_mouth
   <int> <int>       <int>       <int>        <int>
 1     1     0           0           1            1
 2     1     1           1           1            1
 3     1     2           1           1            0
 4     2     0           1           1            1
 5     2     1           0           0            1
 6     2     2           1           1            1
 7     3     0           0           0            0
 8     3     1           0           0            0
 9     3     2           0           0            0
10     4     0           0           0            0
# ℹ 50 more rows

While either method gets us the same result, we tend to prefer using starts_with() when possible. We think it makes your code easier to read (i.e., “Oh, he’s selecting all the side effect columns here.”).

In addition to starts_with(), there is also an ends_with() tidy-select function that can also be useful. For example, we’ve named factors with the _f naming convention throughout the book. We could use that, along with the ends-with() function to create a subset of our data that includes only the factor versions of our side effects columns.

# A tibble: 60 × 5
      id  year se_headache_f se_diarrhea_f se_dry_mouth_f
   <int> <int> <fct>         <fct>         <fct>         
 1     1     0 No            Yes           Yes           
 2     1     1 Yes           Yes           Yes           
 3     1     2 Yes           Yes           No            
 4     2     0 Yes           Yes           Yes           
 5     2     1 No            No            Yes           
 6     2     2 Yes           Yes           Yes           
 7     3     0 No            No            No            
 8     3     1 No            No            No            
 9     3     2 No            No            No            
10     4     0 No            No            No            
# ℹ 50 more rows

Note

🗒Side Note: Variable names are important! Throughout this book, I’ve tried to repeatedly emphasize the importance of coding style – including the way we name our R objects. Many people who are new to data management and analysis (and some who aren’t, MDL) don’t fully appreciate the importance of such things. We hope that the preceding two examples are helping you to see why the little details, like variable names, are important. Using consistent variable naming conventions, for example, allows us to write code that requires less typing, is easier for humans to skim and understand, and is less prone to typos and other related errors.

we can also select columns we want to keep by position instead of name. We don’t do this often. We think it’s generally better to use column names or tidy-select argument modifiers when subsetting columns in your data frame. However, we do sometimes select columns by position when we’re writing our own functions. Therefore, we want to quickly show you what this looks like:

# A tibble: 60 × 3
      id  year drug   
   <int> <int> <chr>  
 1     1     0 Active 
 2     1     1 Active 
 3     1     2 Active 
 4     2     0 Active 
 5     2     1 Active 
 6     2     2 Active 
 7     3     0 Placebo
 8     3     1 Placebo
 9     3     2 Placebo
10     4     0 Placebo
# ℹ 50 more rows

👆Here’s what we did above:

we passed column numbers to the select() function to keep the 1st, 2nd, and 4th columns from our drug_trial data frame.

Finally, in addition to using select() to keep columns in our data frame, we can also use select() to explicitly drop columns from our data frame. To do so, we just need to use either the subtraction symbol (-) or the Not operator (!).

Think back to our example from the previous chapter. There we created some new variables that captured information about participants reporting any and all side effects. During that process we created a column that contained a count of the side effects experienced in each year – n_se_year.

# A tibble: 60 × 6
      id  year n_se_year any_se_year all_se_year any_se
   <int> <int>     <int> <lgl>       <lgl>       <lgl> 
 1     1     0         2 TRUE        FALSE       TRUE  
 2     1     1         3 TRUE        TRUE        TRUE  
 3     1     2         2 TRUE        FALSE       TRUE  
 4     2     0         3 TRUE        TRUE        TRUE  
 5     2     1         1 TRUE        FALSE       TRUE  
 6     2     2         3 TRUE        TRUE        TRUE  
 7     3     0         0 FALSE       FALSE       FALSE 
 8     3     1         0 FALSE       FALSE       FALSE 
 9     3     2         0 FALSE       FALSE       FALSE 
10     4     0         0 FALSE       FALSE       FALSE 
# ℹ 50 more rows

Let’s say we decided we don’t need n_se_year column now that we created any_se_year, all_se_year, and any_se. We can easily drop it from the data frame in a couple of ways:

# A tibble: 60 × 5
      id  year any_se_year all_se_year any_se
   <int> <int> <lgl>       <lgl>       <lgl> 
 1     1     0 TRUE        FALSE       TRUE  
 2     1     1 TRUE        TRUE        TRUE  
 3     1     2 TRUE        FALSE       TRUE  
 4     2     0 TRUE        TRUE        TRUE  
 5     2     1 TRUE        FALSE       TRUE  
 6     2     2 TRUE        TRUE        TRUE  
 7     3     0 FALSE       FALSE       FALSE 
 8     3     1 FALSE       FALSE       FALSE 
 9     3     2 FALSE       FALSE       FALSE 
10     4     0 FALSE       FALSE       FALSE 
# ℹ 50 more rows

# A tibble: 60 × 5
      id  year any_se_year all_se_year any_se
   <int> <int> <lgl>       <lgl>       <lgl> 
 1     1     0 TRUE        FALSE       TRUE  
 2     1     1 TRUE        TRUE        TRUE  
 3     1     2 TRUE        FALSE       TRUE  
 4     2     0 TRUE        TRUE        TRUE  
 5     2     1 TRUE        FALSE       TRUE  
 6     2     2 TRUE        TRUE        TRUE  
 7     3     0 FALSE       FALSE       FALSE 
 8     3     1 FALSE       FALSE       FALSE 
 9     3     2 FALSE       FALSE       FALSE 
10     4     0 FALSE       FALSE       FALSE 
# ℹ 50 more rows

Note that we could have also dropped it indirectly by selecting everything else:

# A tibble: 60 × 5
      id  year any_se_year all_se_year any_se
   <int> <int> <lgl>       <lgl>       <lgl> 
 1     1     0 TRUE        FALSE       TRUE  
 2     1     1 TRUE        TRUE        TRUE  
 3     1     2 TRUE        FALSE       TRUE  
 4     2     0 TRUE        TRUE        TRUE  
 5     2     1 TRUE        FALSE       TRUE  
 6     2     2 TRUE        TRUE        TRUE  
 7     3     0 FALSE       FALSE       FALSE 
 8     3     1 FALSE       FALSE       FALSE 
 9     3     2 FALSE       FALSE       FALSE 
10     4     0 FALSE       FALSE       FALSE 
# ℹ 50 more rows
…
You can type ?rename into your R console to view the help documentation for this function and follow along with the explanation below.

The first argument to the rename_with() function is .data. The value passed to .data should always be a data frame. In this book, we will often pass data frames to the .data argument using the pipe operator (e.g., df %>% rename_with()).

The second argument to the rename_with() function is .fn. The value passed to the .fn argument should be a function that you want to apply to all the columns selected in the .cols argument (see below).

The third argument to the rename_with() function is .cols. The value passed to the .cols argument should be the columns you want to apply the function passed to the .fn argument to. You can select the columns using tidy-select argument modifiers.

27.3 The filter() function

we just saw how to keep and drop columns in our data frame using the select() function. We can keep and drop rows in our data frame using the filter() function or the slice() function.

Similar to selecting columns by position instead of name:

# A tibble: 60 × 3
      id  year drug   
   <int> <int> <chr>  
 1     1     0 Active 
 2     1     1 Active 
 3     1     2 Active 
 4     2     0 Active 
 5     2     1 Active 
 6     2     2 Active 
 7     3     0 Placebo
 8     3     1 Placebo
 9     3     2 Placebo
10     4     0 Placebo
# ℹ 50 more rows
…
